clock_distribution/xrun.log
xrun(64): 24.03-s004: (c) Copyright 1995-2024 Cadence Design Systems, Inc.
TOOL:	xrun(64)	24.03-s004: Started on Jan 12, 2026 at 12:33:08 CET
xrun
	-f xrun.f
		-clean
		./models/clock_distribution_jitter.sv
		./tb/clock_distribution_tb.sv
		-access +rw
		-gui
		-s
		-input /home/msegper/Documents/TFM/clock_distribution/restore.tcl
	-s
xrun: *N,CLEAN: Removing existing directory ./xcelium.d.
file: ./models/clock_distribution_jitter.sv
        int mean = 0;         // Promedio de la distribución
                 |
xmvlog: *W,VARIST (./models/clock_distribution_jitter.sv,124|17): Local static variable with initializer requires 'static' keyword.
        int std_dev = 1;     // Desviación estándar, sigma
                    |
xmvlog: *W,VARIST (./models/clock_distribution_jitter.sv,125|20): Local static variable with initializer requires 'static' keyword.
	module worklib.clock_distribution:sv
		errors: 0, warnings: 2
file: ./tb/clock_distribution_tb.sv
	module worklib.clock_distribution_tb:sv
		errors: 0, warnings: 0
		Caching library 'worklib' ....... Done
	Elaborating the design hierarchy:
	Top level design units:
		cds_rnm_pkg
		clock_distribution_tb
	Building instance overlay tables: ....................
        $display("jitter temporal[%0d] = %0d seed = %0d media =%0d sigma = %0d", i, random_value, seed, mean, std_dev);
                                                                                               |
xmelab: *W,REALCV (./models/clock_distribution_jitter.sv,131|95): Real argument converted to integer for (%d).
 Done
	Using implicit TMP libraries; associated with library worklib
	Generating native compiled code:
		worklib.clock_distribution:sv <0x4029ac90>
			streams: 105, words: 143454
		worklib.clock_distribution_tb:sv <0x11f75bdf>
			streams:  12, words: 13543
	Building instance specific data structures.
	Loading native compiled code:     .................... Done
	Design hierarchy summary:
		                 Instances  Unique
		Modules:                 2       2
		Verilog packages:        1       1
		Registers:             128     128
		Scalar wires:           56       -
		Vectored wires:          1       -
		Always blocks:           6       6
		Initial blocks:          7       7
		Parallel blocks:         1       1
		Pseudo assignments:      9       -
		Assertions:              3       3
		Simulation timescale:  1ps
	Writing initial simulation snapshot: worklib.clock_distribution_tb:sv
xmsim: *W,NOMTDGUI: Multi-Threaded Dumping is disabled for interactive debug mode.
SVSEED default: 1
[DMSINFO] Simulating with Xcelium Mixed-Signal App...
xcelium> 
xcelium> source /eda/cadence/2024-25/RHELx86/XCELIUM_24.03.004/tools/xcelium/files/xmsimrc
xcelium> 
xcelium> # XM-Sim Command File
xcelium> # TOOL:	xmsim(64)	24.03-s004
xcelium> #
xcelium> #
xcelium> # You can restore this configuration with:
xcelium> #
xcelium> #      xrun -f xrun.f -input restore.tcl
xcelium> #
xcelium> 
xcelium> set tcl_prompt1 {puts -nonewline "xcelium> "}
puts -nonewline "xcelium> "
xcelium> set tcl_prompt2 {puts -nonewline "> "}
puts -nonewline "> "
xcelium> set vlog_format %h
%h
xcelium> set vhdl_format %v
%v
xcelium> set real_precision 6
6
xcelium> set display_unit auto
auto
xcelium> set time_unit module
module
xcelium> set heap_garbage_size -200
-200
xcelium> set heap_garbage_time 0
0
xcelium> set assert_report_level note
note
xcelium> set assert_stop_level error
error
xcelium> set autoscope yes
yes
xcelium> set assert_1164_warnings yes
yes
xcelium> set pack_assert_off {}
xcelium> set severity_pack_assert_off {note warning}
note warning
xcelium> set assert_output_stop_level failed
failed
xcelium> set tcl_debug_level 0
0
xcelium> set relax_path_name 1
1
xcelium> set vhdl_vcdmap XX01ZX01X
XX01ZX01X
xcelium> set intovf_severity_level ERROR
ERROR
xcelium> set probe_screen_format 0
0
xcelium> set rangecnst_severity_level ERROR
ERROR
xcelium> set textio_severity_level ERROR
ERROR
xcelium> set vital_timing_checks_on 1
1
xcelium> set vlog_code_show_force 0
0
xcelium> set assert_count_attempts 1
1
xcelium> set tcl_all64 false
false
xcelium> set tcl_runerror_exit false
false
xcelium> set assert_report_incompletes 0
0
xcelium> set show_force 1
1
xcelium> set force_reset_by_reinvoke 0
0
xcelium> set tcl_relaxed_literal 0
0
xcelium> set probe_exclude_patterns {}
xcelium> set probe_packed_limit 4k
4k
xcelium> set probe_unpacked_limit 16k
16k
xcelium> set assert_internal_msg no
no
xcelium> set svseed 1
1
xcelium> set assert_reporting_mode 0
0
xcelium> set vcd_compact_mode 0
0
xcelium> set vhdl_forgen_loopindex_enum_pos 0
0
xcelium> set xmreplay_dc_debug 0
0
xcelium> set tcl_runcmd_interrupt next_command
next_command
xcelium> set tcl_sigval_prefix {#}
#
xcelium> alias . run
xcelium> alias indago verisium
xcelium> alias quit exit
xcelium> database -open -shm -into waves.shm waves -default
Created default SHM database waves
xcelium> probe -create -database waves clock_distribution_tb.dut.atb0 clock_distribution_tb.dut.atb1 clock_distribution_tb.dut.atb_ena clock_distribution_tb.dut.clkin clock_distribution_tb.dut.clkinb clock_distribution_tb.dut.clkout_binary_0 clock_distribution_tb.dut.clkout_binary_0_red clock_distribution_tb.dut.clkout_binary_1 clock_distribution_tb.dut.clkout_binary_2 clock_distribution_tb.dut.clkout_binary_3 clock_distribution_tb.dut.clkout_binary_4 clock_distribution_tb.dut.clkout_binary_5 clock_distribution_tb.dut.clkout_therm_0 clock_distribution_tb.dut.clkout_therm_1 clock_distribution_tb.dut.clkout_therm_2 clock_distribution_tb.dut.clkout_therm_3 clock_distribution_tb.dut.clkout_therm_4 clock_distribution_tb.dut.clkout_therm_5 clock_distribution_tb.dut.clkout_therm_6 clock_distribution_tb.dut.clkout_therm_7 clock_distribution_tb.dut.clkout_therm_8 clock_distribution_tb.dut.clkout_therm_9 clock_distribution_tb.dut.clkout_therm_10 clock_distribution_tb.dut.clkout_therm_11 clock_distribution_tb.dut.clkout_therm_12 clock_distribution_tb.dut.clkout_therm_13 clock_distribution_tb.dut.clkout_therm_14 clock_distribution_tb.dut.clkout_therm_15 clock_distribution_tb.dut.clkout_therm_16 clock_distribution_tb.dut.clkoutb_binary_0 clock_distribution_tb.dut.clkoutb_binary_0_red clock_distribution_tb.dut.clkoutb_binary_1 clock_distribution_tb.dut.clkoutb_binary_2 clock_distribution_tb.dut.clkoutb_binary_3 clock_distribution_tb.dut.clkoutb_binary_4 clock_distribution_tb.dut.clkoutb_binary_5 clock_distribution_tb.dut.clkoutb_therm_0 clock_distribution_tb.dut.clkoutb_therm_1 clock_distribution_tb.dut.clkoutb_therm_2 clock_distribution_tb.dut.clkoutb_therm_3 clock_distribution_tb.dut.clkoutb_therm_4 clock_distribution_tb.dut.clkoutb_therm_5 clock_distribution_tb.dut.clkoutb_therm_6 clock_distribution_tb.dut.clkoutb_therm_7 clock_distribution_tb.dut.clkoutb_therm_8 clock_distribution_tb.dut.clkoutb_therm_9 clock_distribution_tb.dut.clkoutb_therm_10 clock_distribution_tb.dut.clkoutb_therm_11 clock_distribution_tb.dut.clkoutb_therm_12 clock_distribution_tb.dut.clkoutb_therm_13 clock_distribution_tb.dut.clkoutb_therm_14 clock_distribution_tb.dut.clkoutb_therm_15 clock_distribution_tb.dut.clkoutb_therm_16 clock_distribution_tb.dut.iref_25ua clock_distribution_tb.dut.pdb clock_distribution_tb.dut.vddana_0p8 clock_distribution_tb.dut.vssana
Created probe 1
xcelium> 
xcelium> simvision -input restore.tcl.svcf
xmsim: *E,TCLERR: SimVision initialization failed.
xcelium> 
-------------------------------------
Relinquished control to SimVision...
# Restoring simulation environment...
xcelium> input -quiet .reinvoke.sim
xcelium> file delete .reinvoke.sim
xcelium> run
Iniciando tests...
Test 1: Estado apagado
clkout_therm_16 = 0, clkoutb_therm_16 = 0
Test 2: Estado encendido con atb_ena = 2'b00
jitter temporal[16] =          -1 seed = -1092437766 media =0 sigma = 1
jitter temporal[15] =          -1 seed = -1123821437 media =0 sigma = 1
jitter temporal[14] =           0 seed = 124880592 media =0 sigma = 1
jitter temporal[13] =           1 seed = -1625779986 media =0 sigma = 1
jitter temporal[12] =          -1 seed = 1689153146 media =0 sigma = 1
jitter temporal[11] =           1 seed = -1672505401 media =0 sigma = 1
jitter temporal[10] =           0 seed = -482609332 media =0 sigma = 1
jitter temporal[9] =           1 seed = 785128560 media =0 sigma = 1
jitter temporal[8] =           0 seed = -255091464 media =0 sigma = 1
jitter temporal[7] =          -1 seed = -764368703 media =0 sigma = 1
jitter temporal[6] =           0 seed = 495848208 media =0 sigma = 1
jitter temporal[5] =           1 seed = -816887984 media =0 sigma = 1
jitter temporal[4] =          -1 seed = 1616385090 media =0 sigma = 1
jitter temporal[3] =           1 seed = 1195433913 media =0 sigma = 1
jitter temporal[2] =           0 seed = 836071932 media =0 sigma = 1
jitter temporal[1] =           1 seed = -1634173050 media =0 sigma = 1
jitter temporal[0] =          -1 seed = -1452306400 media =0 sigma = 1
jitter temporal[16] =           0 seed = -63915833 media =0 sigma = 1
jitter temporal[15] =           1 seed = 982270071 media =0 sigma = 1
jitter temporal[14] =          -1 seed = 1774869579 media =0 sigma = 1
jitter temporal[13] =           1 seed = -2046393009 media =0 sigma = 1
jitter temporal[12] =           2 seed = -1995881002 media =0 sigma = 1
jitter temporal[11] =           1 seed = 2116688354 media =0 sigma = 1
jitter temporal[10] =           0 seed = 165995258 media =0 sigma = 1
jitter temporal[9] =           0 seed = 511430929 media =0 sigma = 1
jitter temporal[8] =           0 seed = 151151951 media =0 sigma = 1
jitter temporal[7] =           1 seed = 1641478387 media =0 sigma = 1
jitter temporal[6] =          -1 seed = -1084816026 media =0 sigma = 1
jitter temporal[5] =           1 seed = -1350920620 media =0 sigma = 1
jitter temporal[4] =           1 seed = -1376912799 media =0 sigma = 1
jitter temporal[3] =           0 seed = 1334153570 media =0 sigma = 1
jitter temporal[2] =           1 seed = -729270948 media =0 sigma = 1
jitter temporal[1] =           0 seed = 190785071 media =0 sigma = 1
jitter temporal[0] =           0 seed = -525883197 media =0 sigma = 1
jitter temporal[5] =           1 seed = 917366304 media =0 sigma = 1
jitter temporal[4] =          -1 seed = 1971694528 media =0 sigma = 1
jitter temporal[3] =           0 seed = -1821738769 media =0 sigma = 1
jitter temporal[2] =          -2 seed = -1898636184 media =0 sigma = 1
jitter temporal[1] =           2 seed = -1758729575 media =0 sigma = 1
jitter temporal[0] =          -1 seed = 1512720333 media =0 sigma = 1
jitter temporal[5] =          -1 seed = 1008385205 media =0 sigma = 1
jitter temporal[4] =          -1 seed = -1165419884 media =0 sigma = 1
jitter temporal[3] =           0 seed = 314583540 media =0 sigma = 1
jitter temporal[2] =           1 seed = -775153056 media =0 sigma = 1
jitter temporal[1] =           1 seed = 1403106167 media =0 sigma = 1
jitter temporal[0] =           1 seed = 1217086498 media =0 sigma = 1
jitter temporal[16] =           0 seed = 442562164 media =0 sigma = 1
jitter temporal[15] =           1 seed = 963981345 media =0 sigma = 1
jitter temporal[14] =           1 seed = -2070820217 media =0 sigma = 1
jitter temporal[13] =           0 seed = -295421971 media =0 sigma = 1
jitter temporal[12] =           0 seed = 515572413 media =0 sigma = 1
jitter temporal[11] =           0 seed = 81733313 media =0 sigma = 1
jitter temporal[10] =           0 seed = 262665483 media =0 sigma = 1
jitter temporal[9] =          -1 seed = -2027517892 media =0 sigma = 1
jitter temporal[8] =          -1 seed = 1930250651 media =0 sigma = 1
jitter temporal[7] =           1 seed = -1381058536 media =0 sigma = 1
jitter temporal[6] =           1 seed = 959682269 media =0 sigma = 1
jitter temporal[5] =           0 seed = -647644750 media =0 sigma = 1
jitter temporal[4] =           0 seed = 836664955 media =0 sigma = 1
jitter temporal[3] =          -1 seed = 1390821508 media =0 sigma = 1
jitter temporal[2] =           0 seed = 200058374 media =0 sigma = 1
jitter temporal[1] =          -1 seed = 1947450028 media =0 sigma = 1
jitter temporal[0] =           1 seed = 1502782341 media =0 sigma = 1
jitter temporal[16] =           1 seed = 1582373408 media =0 sigma = 1
jitter temporal[15] =           2 seed = 1866879994 media =0 sigma = 1
jitter temporal[14] =           0 seed = 1838609669 media =0 sigma = 1
jitter temporal[13] =          -1 seed = -1210856028 media =0 sigma = 1
jitter temporal[12] =           1 seed = 1776535679 media =0 sigma = 1
jitter temporal[11] =          -2 seed = -1876214361 media =0 sigma = 1
jitter temporal[10] =           0 seed = 568804785 media =0 sigma = 1
jitter temporal[9] =           0 seed = 954594221 media =0 sigma = 1
jitter temporal[8] =          -1 seed = -2109607667 media =0 sigma = 1
jitter temporal[7] =          -1 seed = -1852065917 media =0 sigma = 1
jitter temporal[6] =           0 seed = -263734487 media =0 sigma = 1
jitter temporal[5] =           0 seed = -1223058275 media =0 sigma = 1
jitter temporal[4] =           0 seed = -1558019079 media =0 sigma = 1
jitter temporal[3] =           1 seed = 1600239229 media =0 sigma = 1
jitter temporal[2] =           0 seed = 856952156 media =0 sigma = 1
jitter temporal[1] =           0 seed = -334903678 media =0 sigma = 1
jitter temporal[0] =           1 seed = -1754728170 media =0 sigma = 1
jitter temporal[5] =           1 seed = -1546980626 media =0 sigma = 1
jitter temporal[4] =           1 seed = -1001818918 media =0 sigma = 1
jitter temporal[3] =           1 seed = -1255452757 media =0 sigma = 1
jitter temporal[2] =           0 seed = -943949770 media =0 sigma = 1
jitter temporal[1] =           2 seed = -1764107480 media =0 sigma = 1
jitter temporal[0] =          -2 seed = -2126062501 media =0 sigma = 1
jitter temporal[5] =           0 seed = -161122271 media =0 sigma = 1
jitter temporal[4] =           1 seed = 770628550 media =0 sigma = 1
jitter temporal[3] =           2 seed = 1993890445 media =0 sigma = 1
jitter temporal[2] =          -1 seed = 1842261256 media =0 sigma = 1
jitter temporal[1] =          -1 seed = -1464557805 media =0 sigma = 1
jitter temporal[0] =          -2 seed = 1851413505 media =0 sigma = 1
jitter temporal[16] =           0 seed = -162767344 media =0 sigma = 1
jitter temporal[15] =           1 seed = -1632993908 media =0 sigma = 1
jitter temporal[14] =           0 seed = 510511656 media =0 sigma = 1
jitter temporal[13] =           0 seed = -340101000 media =0 sigma = 1
jitter temporal[12] =           0 seed = -633031320 media =0 sigma = 1
jitter temporal[11] =           0 seed = 895054728 media =0 sigma = 1
jitter temporal[10] =           0 seed = 497787939 media =0 sigma = 1
jitter temporal[9] =          -1 seed = -1677731585 media =0 sigma = 1
jitter temporal[8] =           0 seed = -140141839 media =0 sigma = 1
jitter temporal[7] =           1 seed = -1608664172 media =0 sigma = 1
jitter temporal[6] =           0 seed = -860548079 media =0 sigma = 1
jitter temporal[5] =           1 seed = -1517967461 media =0 sigma = 1
jitter temporal[4] =          -1 seed = -1005514243 media =0 sigma = 1
jitter temporal[3] =           0 seed = 1674674801 media =0 sigma = 1
jitter temporal[2] =          -1 seed = 1071293888 media =0 sigma = 1
jitter temporal[1] =           0 seed = 354340023 media =0 sigma = 1
jitter temporal[0] =           1 seed = -1387867536 media =0 sigma = 1
jitter temporal[16] =           1 seed = -794198342 media =0 sigma = 1
jitter temporal[15] =           1 seed = 2051135268 media =0 sigma = 1
jitter temporal[14] =          -1 seed = 1806973872 media =0 sigma = 1
jitter temporal[13] =           1 seed = -2089493562 media =0 sigma = 1
jitter temporal[12] =           0 seed = 1240189768 media =0 sigma = 1
jitter temporal[11] =           0 seed = -343749717 media =0 sigma = 1
jitter temporal[10] =          -1 seed = -1234173575 media =0 sigma = 1
jitter temporal[9] =          -2 seed = -2062446887 media =0 sigma = 1
jitter temporal[8] =           1 seed = 1544179311 media =0 sigma = 1
jitter temporal[7] =           1 seed = 1605599148 media =0 sigma = 1
jitter temporal[6] =           1 seed = -1841949195 media =0 sigma = 1
jitter temporal[5] =          -1 seed = 1336954980 media =0 sigma = 1
jitter temporal[4] =           1 seed = 1747633625 media =0 sigma = 1
jitter temporal[3] =           1 seed = -1090990190 media =0 sigma = 1
jitter temporal[2] =           0 seed = -2070876480 media =0 sigma = 1
jitter temporal[1] =          -2 seed = 1913537242 media =0 sigma = 1
jitter temporal[0] =           0 seed = -938577829 media =0 sigma = 1
jitter temporal[5] =           0 seed = 1085069551 media =0 sigma = 1
jitter temporal[4] =          -1 seed = 2089536532 media =0 sigma = 1
jitter temporal[3] =           1 seed = 1237839731 media =0 sigma = 1
jitter temporal[2] =           1 seed = -1173566448 media =0 sigma = 1
jitter temporal[1] =           0 seed = 110225553 media =0 sigma = 1
jitter temporal[0] =           0 seed = -968008700 media =0 sigma = 1
jitter temporal[5] =           1 seed = 1116578095 media =0 sigma = 1
jitter temporal[4] =          -1 seed = -813712008 media =0 sigma = 1
jitter temporal[3] =           1 seed = 1538430283 media =0 sigma = 1
jitter temporal[2] =           0 seed = -879676856 media =0 sigma = 1
jitter temporal[1] =          -1 seed = 1543404017 media =0 sigma = 1
jitter temporal[0] =          -1 seed = 1895535963 media =0 sigma = 1
jitter temporal[16] =           1 seed = -1285174787 media =0 sigma = 1
jitter temporal[15] =          -1 seed = -1163848140 media =0 sigma = 1
jitter temporal[14] =           1 seed = 1823686230 media =0 sigma = 1
jitter temporal[13] =           2 seed = 1679297959 media =0 sigma = 1
jitter temporal[12] =           0 seed = -1095754578 media =0 sigma = 1
jitter temporal[11] =          -1 seed = -1778735675 media =0 sigma = 1
jitter temporal[10] =          -2 seed = 2143872883 media =0 sigma = 1
jitter temporal[9] =           0 seed = 386607184 media =0 sigma = 1
jitter temporal[8] =          -1 seed = -1209526552 media =0 sigma = 1
jitter temporal[7] =           1 seed = -1978172993 media =0 sigma = 1
jitter temporal[6] =           1 seed = -1706102202 media =0 sigma = 1
jitter temporal[5] =           0 seed = -883052221 media =0 sigma = 1
jitter temporal[4] =           0 seed = -764805012 media =0 sigma = 1
jitter temporal[3] =           0 seed = 1941372651 media =0 sigma = 1
jitter temporal[2] =           2 seed = -2003651854 media =0 sigma = 1
jitter temporal[1] =          -1 seed = 1115141226 media =0 sigma = 1
jitter temporal[0] =          -1 seed = 1321899296 media =0 sigma = 1
jitter temporal[16] =          -1 seed = 1277755865 media =0 sigma = 1
jitter temporal[15] =           0 seed = 426006158 media =0 sigma = 1
jitter temporal[14] =           0 seed = -217170462 media =0 sigma = 1
jitter temporal[13] =           1 seed = 2143877705 media =0 sigma = 1
jitter temporal[12] =           1 seed = 1467365935 media =0 sigma = 1
jitter temporal[11] =          -1 seed = -913642533 media =0 sigma = 1
jitter temporal[10] =           0 seed = -356776432 media =0 sigma = 1
jitter temporal[9] =          -1 seed = -892014942 media =0 sigma = 1
jitter temporal[8] =          -1 seed = 1810447049 media =0 sigma = 1
jitter temporal[7] =           1 seed = 1172368719 media =0 sigma = 1
jitter temporal[6] =           0 seed = 716341272 media =0 sigma = 1
jitter temporal[5] =          -1 seed = -1354549785 media =0 sigma = 1
jitter temporal[4] =          -1 seed = 1471585356 media =0 sigma = 1
jitter temporal[3] =          -1 seed = 1074794837 media =0 sigma = 1
jitter temporal[2] =           0 seed = -660017430 media =0 sigma = 1
jitter temporal[1] =           0 seed = -499886501 media =0 sigma = 1
jitter temporal[0] =          -2 seed = 1795279981 media =0 sigma = 1
jitter temporal[5] =           1 seed = -1382700772 media =0 sigma = 1
jitter temporal[4] =          -1 seed = -1677725625 media =0 sigma = 1
jitter temporal[3] =          -1 seed = -2098624497 media =0 sigma = 1
jitter temporal[2] =           0 seed = 663814321 media =0 sigma = 1
jitter temporal[1] =           1 seed = -1784173532 media =0 sigma = 1
jitter temporal[0] =          -3 seed = -2034933585 media =0 sigma = 1
jitter temporal[5] =          -1 seed = 1570707100 media =0 sigma = 1
jitter temporal[4] =          -1 seed = -1008409945 media =0 sigma = 1
jitter temporal[3] =          -1 seed = 1412641928 media =0 sigma = 1
jitter temporal[2] =           1 seed = 1923767907 media =0 sigma = 1
jitter temporal[1] =           0 seed = 139763847 media =0 sigma = 1
jitter temporal[0] =           1 seed = 1133891880 media =0 sigma = 1
jitter temporal[16] =           0 seed = -408108558 media =0 sigma = 1
jitter temporal[15] =          -1 seed = -1035644179 media =0 sigma = 1
jitter temporal[14] =           0 seed = 1186804246 media =0 sigma = 1
jitter temporal[13] =           1 seed = -1377241781 media =0 sigma = 1
jitter temporal[12] =          -1 seed = 1460581115 media =0 sigma = 1
jitter temporal[11] =           0 seed = 1227874998 media =0 sigma = 1
jitter temporal[10] =           0 seed = 105792521 media =0 sigma = 1
jitter temporal[9] =           1 seed = -1517086277 media =0 sigma = 1
jitter temporal[8] =           0 seed = 1957521276 media =0 sigma = 1
jitter temporal[7] =           1 seed = 1715819142 media =0 sigma = 1
jitter temporal[6] =           1 seed = 1984992240 media =0 sigma = 1
jitter temporal[5] =           1 seed = 1272421980 media =0 sigma = 1
jitter temporal[4] =           1 seed = -1231355667 media =0 sigma = 1
jitter temporal[3] =           2 seed = -2012947249 media =0 sigma = 1
jitter temporal[2] =           0 seed = 173855218 media =0 sigma = 1
jitter temporal[1] =          -1 seed = 1261673554 media =0 sigma = 1
jitter temporal[0] =           0 seed = 941026921 media =0 sigma = 1
jitter temporal[16] =          -2 seed = 1999154394 media =0 sigma = 1
jitter temporal[15] =           0 seed = -584297085 media =0 sigma = 1
jitter temporal[14] =           0 seed = 350977138 media =0 sigma = 1
jitter temporal[13] =           2 seed = 2112245649 media =0 sigma = 1
jitter temporal[12] =          -1 seed = -894011244 media =0 sigma = 1
jitter temporal[11] =          -1 seed = 1282680260 media =0 sigma = 1
jitter temporal[10] =           0 seed = -337769185 media =0 sigma = 1
jitter temporal[9] =           0 seed = -402298142 media =0 sigma = 1
jitter temporal[8] =           0 seed = 83749189 media =0 sigma = 1
jitter temporal[7] =           1 seed = 1247582727 media =0 sigma = 1
jitter temporal[6] =           0 seed = -156488037 media =0 sigma = 1
jitter temporal[5] =           0 seed = 627685827 media =0 sigma = 1
jitter temporal[4] =           0 seed = -283476883 media =0 sigma = 1
jitter temporal[3] =          -1 seed = 1342222556 media =0 sigma = 1
jitter temporal[2] =           0 seed = 320192489 media =0 sigma = 1
jitter temporal[1] =          -1 seed = -1185363527 media =0 sigma = 1
jitter temporal[0] =          -2 seed = 2074675009 media =0 sigma = 1
jitter temporal[5] =           0 seed = -263937384 media =0 sigma = 1
jitter temporal[4] =          -1 seed = -1600672751 media =0 sigma = 1
jitter temporal[3] =          -1 seed = 1493577234 media =0 sigma = 1
jitter temporal[2] =           0 seed = -590633221 media =0 sigma = 1
jitter temporal[1] =          -1 seed = 1418349026 media =0 sigma = 1
jitter temporal[0] =           0 seed = 491814994 media =0 sigma = 1
jitter temporal[5] =          -1 seed = 1005038019 media =0 sigma = 1
jitter temporal[4] =           0 seed = 1684863710 media =0 sigma = 1
jitter temporal[3] =           0 seed = -423541227 media =0 sigma = 1
jitter temporal[2] =           0 seed = 550109818 media =0 sigma = 1
jitter temporal[1] =          -1 seed = 763060537 media =0 sigma = 1
jitter temporal[0] =          -1 seed = -2039255679 media =0 sigma = 1
atb1 = `wrealZState, atb0 = `wrealZState
Test 3: Estado encendido con atb_ena = 2'b01
jitter temporal[16] =          -2 seed = 1966621659 media =0 sigma = 1
jitter temporal[15] =           1 seed = -1560196333 media =0 sigma = 1
jitter temporal[14] =           1 seed = -2046667802 media =0 sigma = 1
jitter temporal[13] =          -1 seed = -889289468 media =0 sigma = 1
jitter temporal[12] =           0 seed = -186845034 media =0 sigma = 1
jitter temporal[11] =           0 seed = -1135405029 media =0 sigma = 1
jitter temporal[10] =           0 seed = 901167794 media =0 sigma = 1
jitter temporal[9] =           0 seed = -308541780 media =0 sigma = 1
jitter temporal[8] =           1 seed = -839850221 media =0 sigma = 1
jitter temporal[7] =           1 seed = 1778782309 media =0 sigma = 1
jitter temporal[6] =           1 seed = 1576008856 media =0 sigma = 1
jitter temporal[5] =          -1 seed = 1403617968 media =0 sigma = 1
jitter temporal[4] =          -1 seed = 1921725571 media =0 sigma = 1
jitter temporal[3] =          -1 seed = 1620699639 media =0 sigma = 1
jitter temporal[2] =          -1 seed = -1336645830 media =0 sigma = 1
jitter temporal[1] =           0 seed = -1162209040 media =0 sigma = 1
jitter temporal[0] =           1 seed = 772585899 media =0 sigma = 1
jitter temporal[16] =           4 seed = 2127046631 media =0 sigma = 1
jitter temporal[15] =          -1 seed = 1239299173 media =0 sigma = 1
jitter temporal[14] =          -2 seed = -1783130638 media =0 sigma = 1
jitter temporal[13] =           0 seed = 1448998417 media =0 sigma = 1
jitter temporal[12] =           0 seed = 1918882973 media =0 sigma = 1
jitter temporal[11] =           1 seed = 1719544621 media =0 sigma = 1
jitter temporal[10] =          -1 seed = -1839443667 media =0 sigma = 1
jitter temporal[9] =          -1 seed = -1447183374 media =0 sigma = 1
jitter temporal[8] =           0 seed = -165699673 media =0 sigma = 1
jitter temporal[7] =           0 seed = 281455064 media =0 sigma = 1
jitter temporal[6] =           0 seed = -931749525 media =0 sigma = 1
jitter temporal[5] =           0 seed = -541929666 media =0 sigma = 1
jitter temporal[4] =          -1 seed = 1322749837 media =0 sigma = 1
jitter temporal[3] =           0 seed = 363638615 media =0 sigma = 1
jitter temporal[2] =          -1 seed = 1758678740 media =0 sigma = 1
jitter temporal[1] =           1 seed = -1516623912 media =0 sigma = 1
jitter temporal[0] =           1 seed = -1609565549 media =0 sigma = 1
jitter temporal[5] =          -1 seed = -1745159607 media =0 sigma = 1
jitter temporal[4] =          -1 seed = 1178937588 media =0 sigma = 1
jitter temporal[3] =          -1 seed = 1873430963 media =0 sigma = 1
jitter temporal[2] =           1 seed = -1844041827 media =0 sigma = 1
jitter temporal[1] =          -2 seed = 1664437898 media =0 sigma = 1
jitter temporal[0] =          -1 seed = 1372491999 media =0 sigma = 1
jitter temporal[5] =           1 seed = 1531680575 media =0 sigma = 1
jitter temporal[4] =          -1 seed = 1875975996 media =0 sigma = 1
jitter temporal[3] =          -1 seed = 1491822209 media =0 sigma = 1
jitter temporal[2] =           0 seed = -569687674 media =0 sigma = 1
jitter temporal[1] =          -1 seed = 1679550399 media =0 sigma = 1
jitter temporal[0] =           0 seed = -197134210 media =0 sigma = 1
jitter temporal[16] =          -1 seed = 1589858770 media =0 sigma = 1
jitter temporal[15] =           0 seed = -1188420549 media =0 sigma = 1
jitter temporal[14] =           0 seed = 211309564 media =0 sigma = 1
jitter temporal[13] =           0 seed = 1527139336 media =0 sigma = 1
jitter temporal[12] =          -1 seed = -1199379281 media =0 sigma = 1
jitter temporal[11] =           1 seed = 1236098697 media =0 sigma = 1
jitter temporal[10] =           0 seed = -1162456555 media =0 sigma = 1
jitter temporal[9] =           0 seed = -2060409082 media =0 sigma = 1
jitter temporal[8] =           0 seed = -215868960 media =0 sigma = 1
jitter temporal[7] =          -2 seed = -1984868585 media =0 sigma = 1
jitter temporal[6] =           0 seed = 1722634405 media =0 sigma = 1
jitter temporal[5] =           1 seed = -1610993765 media =0 sigma = 1
jitter temporal[4] =           1 seed = 1372630409 media =0 sigma = 1
jitter temporal[3] =           0 seed = 651774606 media =0 sigma = 1
jitter temporal[2] =           0 seed = -651455738 media =0 sigma = 1
jitter temporal[1] =           0 seed = -366152602 media =0 sigma = 1
jitter temporal[0] =           2 seed = 1799522532 media =0 sigma = 1
jitter temporal[16] =           0 seed = -598376570 media =0 sigma = 1
jitter temporal[15] =           0 seed = 299991364 media =0 sigma = 1
jitter temporal[14] =           0 seed = -1081941082 media =0 sigma = 1
jitter temporal[13] =           2 seed = 1913983376 media =0 sigma = 1
jitter temporal[12] =           0 seed = 596491980 media =0 sigma = 1
jitter temporal[11] =           2 seed = 2033021316 media =0 sigma = 1
jitter temporal[10] =           0 seed = 313324667 media =0 sigma = 1
jitter temporal[9] =           1 seed = -1922233060 media =0 sigma = 1
jitter temporal[8] =           0 seed = 375139357 media =0 sigma = 1
jitter temporal[7] =           2 seed = 1945314211 media =0 sigma = 1
jitter temporal[6] =           0 seed = 617005630 media =0 sigma = 1
jitter temporal[5] =           0 seed = 1717125758 media =0 sigma = 1
jitter temporal[4] =           0 seed = 689664641 media =0 sigma = 1
jitter temporal[3] =           2 seed = 1792479298 media =0 sigma = 1
jitter temporal[2] =           0 seed = -407621199 media =0 sigma = 1
jitter temporal[1] =           0 seed = 529193241 media =0 sigma = 1
jitter temporal[0] =           0 seed = -530267332 media =0 sigma = 1
jitter temporal[5] =          -1 seed = 1471797631 media =0 sigma = 1
jitter temporal[4] =           1 seed = 733736491 media =0 sigma = 1
jitter temporal[3] =           0 seed = 1094956753 media =0 sigma = 1
jitter temporal[2] =           0 seed = -690721624 media =0 sigma = 1
jitter temporal[1] =           1 seed = 1250398284 media =0 sigma = 1
jitter temporal[0] =          -1 seed = 1346654753 media =0 sigma = 1
jitter temporal[5] =           0 seed = -151125924 media =0 sigma = 1
jitter temporal[4] =           0 seed = -132316015 media =0 sigma = 1
jitter temporal[3] =           0 seed = 644082416 media =0 sigma = 1
jitter temporal[2] =           2 seed = 2065226424 media =0 sigma = 1
jitter temporal[1] =           0 seed = -177751590 media =0 sigma = 1
jitter temporal[0] =           2 seed = 2126008817 media =0 sigma = 1
jitter temporal[16] =           0 seed = 1296159521 media =0 sigma = 1
jitter temporal[15] =          -3 seed = 2079177070 media =0 sigma = 1
jitter temporal[14] =           1 seed = 1217644337 media =0 sigma = 1
jitter temporal[13] =           1 seed = -1587471946 media =0 sigma = 1
jitter temporal[12] =          -2 seed = -1953222617 media =0 sigma = 1
jitter temporal[11] =           1 seed = -1854261681 media =0 sigma = 1
jitter temporal[10] =           0 seed = -695336730 media =0 sigma = 1
jitter temporal[9] =          -1 seed = -1525980495 media =0 sigma = 1
jitter temporal[8] =           0 seed = -1323298231 media =0 sigma = 1
jitter temporal[7] =           0 seed = -619749847 media =0 sigma = 1
jitter temporal[6] =          -1 seed = -1343620270 media =0 sigma = 1
jitter temporal[5] =           0 seed = -581787861 media =0 sigma = 1
jitter temporal[4] =          -1 seed = -1311107086 media =0 sigma = 1
jitter temporal[3] =           1 seed = 1844044415 media =0 sigma = 1
jitter temporal[2] =           3 seed = -2089038623 media =0 sigma = 1
jitter temporal[1] =           1 seed = -880962156 media =0 sigma = 1
jitter temporal[0] =           2 seed = -1862703709 media =0 sigma = 1
